<?xml version="1.0" encoding="utf-8" standalone="no"?>
<!DOCTYPE svg PUBLIC "-//W3C//DTD SVG 1.1//EN"
  "http://www.w3.org/Graphics/SVG/1.1/DTD/svg11.dtd">
<!-- Created with matplotlib (http://matplotlib.org/) -->
<svg height="345pt" version="1.1" viewBox="0 0 460 345" width="460pt" xmlns="http://www.w3.org/2000/svg" xmlns:xlink="http://www.w3.org/1999/xlink">
 <defs>
  <style type="text/css">
*{stroke-linecap:butt;stroke-linejoin:round;}
  </style>
 </defs>
 <g id="figure_1">
  <g id="patch_1">
   <path d="M 0 345.6 
L 460.8 345.6 
L 460.8 0 
L 0 0 
z
" style="fill:#ffffff;"/>
  </g>
  <g id="axes_1">
   <g id="patch_2">
    <path d="M 57.6 307.584 
L 414.72 307.584 
L 414.72 41.472 
L 57.6 41.472 
z
" style="fill:#ffffff;"/>
   </g>
   <g id="matplotlib.axis_1">
    <g id="xtick_1">
     <g id="line2d_1">
      <defs>
       <path d="M 0 0 
L 0 3.5 
" id="m2319f15d4c" style="stroke:#000000;stroke-width:0.8;"/>
      </defs>
      <g>
       <use style="stroke:#000000;stroke-width:0.8;" x="118.420087" xlink:href="#m2319f15d4c" y="307.584"/>
      </g>
     </g>
     <g id="text_1">
      <!-- 31 -->
      <defs>
       <path d="M 40.578125 39.3125 
Q 47.65625 37.796875 51.625 33 
Q 55.609375 28.21875 55.609375 21.1875 
Q 55.609375 10.40625 48.1875 4.484375 
Q 40.765625 -1.421875 27.09375 -1.421875 
Q 22.515625 -1.421875 17.65625 -0.515625 
Q 12.796875 0.390625 7.625 2.203125 
L 7.625 11.71875 
Q 11.71875 9.328125 16.59375 8.109375 
Q 21.484375 6.890625 26.8125 6.890625 
Q 36.078125 6.890625 40.9375 10.546875 
Q 45.796875 14.203125 45.796875 21.1875 
Q 45.796875 27.640625 41.28125 31.265625 
Q 36.765625 34.90625 28.71875 34.90625 
L 20.21875 34.90625 
L 20.21875 43.015625 
L 29.109375 43.015625 
Q 36.375 43.015625 40.234375 45.921875 
Q 44.09375 48.828125 44.09375 54.296875 
Q 44.09375 59.90625 40.109375 62.90625 
Q 36.140625 65.921875 28.71875 65.921875 
Q 24.65625 65.921875 20.015625 65.03125 
Q 15.375 64.15625 9.8125 62.3125 
L 9.8125 71.09375 
Q 15.4375 72.65625 20.34375 73.4375 
Q 25.25 74.21875 29.59375 74.21875 
Q 40.828125 74.21875 47.359375 69.109375 
Q 53.90625 64.015625 53.90625 55.328125 
Q 53.90625 49.265625 50.4375 45.09375 
Q 46.96875 40.921875 40.578125 39.3125 
" id="DejaVuSans-33"/>
       <path d="M 12.40625 8.296875 
L 28.515625 8.296875 
L 28.515625 63.921875 
L 10.984375 60.40625 
L 10.984375 69.390625 
L 28.421875 72.90625 
L 38.28125 72.90625 
L 38.28125 8.296875 
L 54.390625 8.296875 
L 54.390625 0 
L 12.40625 0 
z
" id="DejaVuSans-31"/>
      </defs>
      <g transform="translate(112.057587 322.182437)scale(0.1 -0.1)">
       <use xlink:href="#DejaVuSans-33"/>
       <use x="63.623047" xlink:href="#DejaVuSans-31"/>
      </g>
     </g>
    </g>
    <g id="xtick_2">
     <g id="line2d_2">
      <g>
       <use style="stroke:#000000;stroke-width:0.8;" x="191.33621" xlink:href="#m2319f15d4c" y="307.584"/>
      </g>
     </g>
     <g id="text_2">
      <!-- 32 -->
      <defs>
       <path d="M 19.1875 8.296875 
L 53.609375 8.296875 
L 53.609375 0 
L 7.328125 0 
L 7.328125 8.296875 
Q 12.9375 14.109375 22.625 23.890625 
Q 32.328125 33.6875 34.8125 36.53125 
Q 39.546875 41.84375 41.421875 45.53125 
Q 43.3125 49.21875 43.3125 52.78125 
Q 43.3125 58.59375 39.234375 62.25 
Q 35.15625 65.921875 28.609375 65.921875 
Q 23.96875 65.921875 18.8125 64.3125 
Q 13.671875 62.703125 7.8125 59.421875 
L 7.8125 69.390625 
Q 13.765625 71.78125 18.9375 73 
Q 24.125 74.21875 28.421875 74.21875 
Q 39.75 74.21875 46.484375 68.546875 
Q 53.21875 62.890625 53.21875 53.421875 
Q 53.21875 48.921875 51.53125 44.890625 
Q 49.859375 40.875 45.40625 35.40625 
Q 44.1875 33.984375 37.640625 27.21875 
Q 31.109375 20.453125 19.1875 8.296875 
" id="DejaVuSans-32"/>
      </defs>
      <g transform="translate(184.97371 322.182437)scale(0.1 -0.1)">
       <use xlink:href="#DejaVuSans-33"/>
       <use x="63.623047" xlink:href="#DejaVuSans-32"/>
      </g>
     </g>
    </g>
    <g id="xtick_3">
     <g id="line2d_3">
      <g>
       <use style="stroke:#000000;stroke-width:0.8;" x="264.252334" xlink:href="#m2319f15d4c" y="307.584"/>
      </g>
     </g>
     <g id="text_3">
      <!-- 33 -->
      <g transform="translate(257.889834 322.182437)scale(0.1 -0.1)">
       <use xlink:href="#DejaVuSans-33"/>
       <use x="63.623047" xlink:href="#DejaVuSans-33"/>
      </g>
     </g>
    </g>
    <g id="xtick_4">
     <g id="line2d_4">
      <g>
       <use style="stroke:#000000;stroke-width:0.8;" x="337.168458" xlink:href="#m2319f15d4c" y="307.584"/>
      </g>
     </g>
     <g id="text_4">
      <!-- 34 -->
      <defs>
       <path d="M 37.796875 64.3125 
L 12.890625 25.390625 
L 37.796875 25.390625 
z
M 35.203125 72.90625 
L 47.609375 72.90625 
L 47.609375 25.390625 
L 58.015625 25.390625 
L 58.015625 17.1875 
L 47.609375 17.1875 
L 47.609375 0 
L 37.796875 0 
L 37.796875 17.1875 
L 4.890625 17.1875 
L 4.890625 26.703125 
z
" id="DejaVuSans-34"/>
      </defs>
      <g transform="translate(330.805958 322.182437)scale(0.1 -0.1)">
       <use xlink:href="#DejaVuSans-33"/>
       <use x="63.623047" xlink:href="#DejaVuSans-34"/>
      </g>
     </g>
    </g>
    <g id="xtick_5">
     <g id="line2d_5">
      <g>
       <use style="stroke:#000000;stroke-width:0.8;" x="410.084581" xlink:href="#m2319f15d4c" y="307.584"/>
      </g>
     </g>
     <g id="text_5">
      <!-- 35 -->
      <defs>
       <path d="M 10.796875 72.90625 
L 49.515625 72.90625 
L 49.515625 64.59375 
L 19.828125 64.59375 
L 19.828125 46.734375 
Q 21.96875 47.46875 24.109375 47.828125 
Q 26.265625 48.1875 28.421875 48.1875 
Q 40.625 48.1875 47.75 41.5 
Q 54.890625 34.8125 54.890625 23.390625 
Q 54.890625 11.625 47.5625 5.09375 
Q 40.234375 -1.421875 26.90625 -1.421875 
Q 22.3125 -1.421875 17.546875 -0.640625 
Q 12.796875 0.140625 7.71875 1.703125 
L 7.71875 11.625 
Q 12.109375 9.234375 16.796875 8.0625 
Q 21.484375 6.890625 26.703125 6.890625 
Q 35.15625 6.890625 40.078125 11.328125 
Q 45.015625 15.765625 45.015625 23.390625 
Q 45.015625 31 40.078125 35.4375 
Q 35.15625 39.890625 26.703125 39.890625 
Q 22.75 39.890625 18.8125 39.015625 
Q 14.890625 38.140625 10.796875 36.28125 
z
" id="DejaVuSans-35"/>
      </defs>
      <g transform="translate(403.722081 322.182437)scale(0.1 -0.1)">
       <use xlink:href="#DejaVuSans-33"/>
       <use x="63.623047" xlink:href="#DejaVuSans-35"/>
      </g>
     </g>
    </g>
    <g id="text_6">
     <!-- Salinity (PSU) -->
     <defs>
      <path d="M 53.515625 70.515625 
L 53.515625 60.890625 
Q 47.90625 63.578125 42.921875 64.890625 
Q 37.9375 66.21875 33.296875 66.21875 
Q 25.25 66.21875 20.875 63.09375 
Q 16.5 59.96875 16.5 54.203125 
Q 16.5 49.359375 19.40625 46.890625 
Q 22.3125 44.4375 30.421875 42.921875 
L 36.375 41.703125 
Q 47.40625 39.59375 52.65625 34.296875 
Q 57.90625 29 57.90625 20.125 
Q 57.90625 9.515625 50.796875 4.046875 
Q 43.703125 -1.421875 29.984375 -1.421875 
Q 24.8125 -1.421875 18.96875 -0.25 
Q 13.140625 0.921875 6.890625 3.21875 
L 6.890625 13.375 
Q 12.890625 10.015625 18.65625 8.296875 
Q 24.421875 6.59375 29.984375 6.59375 
Q 38.421875 6.59375 43.015625 9.90625 
Q 47.609375 13.234375 47.609375 19.390625 
Q 47.609375 24.75 44.3125 27.78125 
Q 41.015625 30.8125 33.5 32.328125 
L 27.484375 33.5 
Q 16.453125 35.6875 11.515625 40.375 
Q 6.59375 45.0625 6.59375 53.421875 
Q 6.59375 63.09375 13.40625 68.65625 
Q 20.21875 74.21875 32.171875 74.21875 
Q 37.3125 74.21875 42.625 73.28125 
Q 47.953125 72.359375 53.515625 70.515625 
" id="DejaVuSans-53"/>
      <path d="M 34.28125 27.484375 
Q 23.390625 27.484375 19.1875 25 
Q 14.984375 22.515625 14.984375 16.5 
Q 14.984375 11.71875 18.140625 8.90625 
Q 21.296875 6.109375 26.703125 6.109375 
Q 34.1875 6.109375 38.703125 11.40625 
Q 43.21875 16.703125 43.21875 25.484375 
L 43.21875 27.484375 
z
M 52.203125 31.203125 
L 52.203125 0 
L 43.21875 0 
L 43.21875 8.296875 
Q 40.140625 3.328125 35.546875 0.953125 
Q 30.953125 -1.421875 24.3125 -1.421875 
Q 15.921875 -1.421875 10.953125 3.296875 
Q 6 8.015625 6 15.921875 
Q 6 25.140625 12.171875 29.828125 
Q 18.359375 34.515625 30.609375 34.515625 
L 43.21875 34.515625 
L 43.21875 35.40625 
Q 43.21875 41.609375 39.140625 45 
Q 35.0625 48.390625 27.6875 48.390625 
Q 23 48.390625 18.546875 47.265625 
Q 14.109375 46.140625 10.015625 43.890625 
L 10.015625 52.203125 
Q 14.9375 54.109375 19.578125 55.046875 
Q 24.21875 56 28.609375 56 
Q 40.484375 56 46.34375 49.84375 
Q 52.203125 43.703125 52.203125 31.203125 
" id="DejaVuSans-61"/>
      <path d="M 9.421875 75.984375 
L 18.40625 75.984375 
L 18.40625 0 
L 9.421875 0 
z
" id="DejaVuSans-6c"/>
      <path d="M 9.421875 54.6875 
L 18.40625 54.6875 
L 18.40625 0 
L 9.421875 0 
z
M 9.421875 75.984375 
L 18.40625 75.984375 
L 18.40625 64.59375 
L 9.421875 64.59375 
z
" id="DejaVuSans-69"/>
      <path d="M 54.890625 33.015625 
L 54.890625 0 
L 45.90625 0 
L 45.90625 32.71875 
Q 45.90625 40.484375 42.875 44.328125 
Q 39.84375 48.1875 33.796875 48.1875 
Q 26.515625 48.1875 22.3125 43.546875 
Q 18.109375 38.921875 18.109375 30.90625 
L 18.109375 0 
L 9.078125 0 
L 9.078125 54.6875 
L 18.109375 54.6875 
L 18.109375 46.1875 
Q 21.34375 51.125 25.703125 53.5625 
Q 30.078125 56 35.796875 56 
Q 45.21875 56 50.046875 50.171875 
Q 54.890625 44.34375 54.890625 33.015625 
" id="DejaVuSans-6e"/>
      <path d="M 18.3125 70.21875 
L 18.3125 54.6875 
L 36.8125 54.6875 
L 36.8125 47.703125 
L 18.3125 47.703125 
L 18.3125 18.015625 
Q 18.3125 11.328125 20.140625 9.421875 
Q 21.96875 7.515625 27.59375 7.515625 
L 36.8125 7.515625 
L 36.8125 0 
L 27.59375 0 
Q 17.1875 0 13.234375 3.875 
Q 9.28125 7.765625 9.28125 18.015625 
L 9.28125 47.703125 
L 2.6875 47.703125 
L 2.6875 54.6875 
L 9.28125 54.6875 
L 9.28125 70.21875 
z
" id="DejaVuSans-74"/>
      <path d="M 32.171875 -5.078125 
Q 28.375 -14.84375 24.75 -17.8125 
Q 21.140625 -20.796875 15.09375 -20.796875 
L 7.90625 -20.796875 
L 7.90625 -13.28125 
L 13.1875 -13.28125 
Q 16.890625 -13.28125 18.9375 -11.515625 
Q 21 -9.765625 23.484375 -3.21875 
L 25.09375 0.875 
L 2.984375 54.6875 
L 12.5 54.6875 
L 29.59375 11.921875 
L 46.6875 54.6875 
L 56.203125 54.6875 
z
" id="DejaVuSans-79"/>
      <path id="DejaVuSans-20"/>
      <path d="M 31 75.875 
Q 24.46875 64.65625 21.28125 53.65625 
Q 18.109375 42.671875 18.109375 31.390625 
Q 18.109375 20.125 21.3125 9.0625 
Q 24.515625 -2 31 -13.1875 
L 23.1875 -13.1875 
Q 15.875 -1.703125 12.234375 9.375 
Q 8.59375 20.453125 8.59375 31.390625 
Q 8.59375 42.28125 12.203125 53.3125 
Q 15.828125 64.359375 23.1875 75.875 
z
" id="DejaVuSans-28"/>
      <path d="M 19.671875 64.796875 
L 19.671875 37.40625 
L 32.078125 37.40625 
Q 38.96875 37.40625 42.71875 40.96875 
Q 46.484375 44.53125 46.484375 51.125 
Q 46.484375 57.671875 42.71875 61.234375 
Q 38.96875 64.796875 32.078125 64.796875 
z
M 9.8125 72.90625 
L 32.078125 72.90625 
Q 44.34375 72.90625 50.609375 67.359375 
Q 56.890625 61.8125 56.890625 51.125 
Q 56.890625 40.328125 50.609375 34.8125 
Q 44.34375 29.296875 32.078125 29.296875 
L 19.671875 29.296875 
L 19.671875 0 
L 9.8125 0 
z
" id="DejaVuSans-50"/>
      <path d="M 8.6875 72.90625 
L 18.609375 72.90625 
L 18.609375 28.609375 
Q 18.609375 16.890625 22.84375 11.734375 
Q 27.09375 6.59375 36.625 6.59375 
Q 46.09375 6.59375 50.34375 11.734375 
Q 54.59375 16.890625 54.59375 28.609375 
L 54.59375 72.90625 
L 64.5 72.90625 
L 64.5 27.390625 
Q 64.5 13.140625 57.4375 5.859375 
Q 50.390625 -1.421875 36.625 -1.421875 
Q 22.796875 -1.421875 15.734375 5.859375 
Q 8.6875 13.140625 8.6875 27.390625 
z
" id="DejaVuSans-55"/>
      <path d="M 8.015625 75.875 
L 15.828125 75.875 
Q 23.140625 64.359375 26.78125 53.3125 
Q 30.421875 42.28125 30.421875 31.390625 
Q 30.421875 20.453125 26.78125 9.375 
Q 23.140625 -1.703125 15.828125 -13.1875 
L 8.015625 -13.1875 
Q 14.5 -2 17.703125 9.0625 
Q 20.90625 20.125 20.90625 31.390625 
Q 20.90625 42.671875 17.703125 53.65625 
Q 14.5 64.65625 8.015625 75.875 
" id="DejaVuSans-29"/>
     </defs>
     <g transform="translate(202.327187 335.860562)scale(0.1 -0.1)">
      <use xlink:href="#DejaVuSans-53"/>
      <use x="63.476562" xlink:href="#DejaVuSans-61"/>
      <use x="124.755859" xlink:href="#DejaVuSans-6c"/>
      <use x="152.539062" xlink:href="#DejaVuSans-69"/>
      <use x="180.322266" xlink:href="#DejaVuSans-6e"/>
      <use x="243.701172" xlink:href="#DejaVuSans-69"/>
      <use x="271.484375" xlink:href="#DejaVuSans-74"/>
      <use x="310.693359" xlink:href="#DejaVuSans-79"/>
      <use x="369.873047" xlink:href="#DejaVuSans-20"/>
      <use x="401.660156" xlink:href="#DejaVuSans-28"/>
      <use x="440.673828" xlink:href="#DejaVuSans-50"/>
      <use x="500.976562" xlink:href="#DejaVuSans-53"/>
      <use x="564.453125" xlink:href="#DejaVuSans-55"/>
      <use x="637.646484" xlink:href="#DejaVuSans-29"/>
     </g>
    </g>
   </g>
   <g id="matplotlib.axis_2">
    <g id="ytick_1">
     <g id="line2d_6">
      <defs>
       <path d="M 0 0 
L -3.5 0 
" id="m90a4a70d0b" style="stroke:#000000;stroke-width:0.8;"/>
      </defs>
      <g>
       <use style="stroke:#000000;stroke-width:0.8;" x="57.6" xlink:href="#m90a4a70d0b" y="49.508167"/>
      </g>
     </g>
     <g id="text_7">
      <!-- 0 -->
      <defs>
       <path d="M 31.78125 66.40625 
Q 24.171875 66.40625 20.328125 58.90625 
Q 16.5 51.421875 16.5 36.375 
Q 16.5 21.390625 20.328125 13.890625 
Q 24.171875 6.390625 31.78125 6.390625 
Q 39.453125 6.390625 43.28125 13.890625 
Q 47.125 21.390625 47.125 36.375 
Q 47.125 51.421875 43.28125 58.90625 
Q 39.453125 66.40625 31.78125 66.40625 
M 31.78125 74.21875 
Q 44.046875 74.21875 50.515625 64.515625 
Q 56.984375 54.828125 56.984375 36.375 
Q 56.984375 17.96875 50.515625 8.265625 
Q 44.046875 -1.421875 31.78125 -1.421875 
Q 19.53125 -1.421875 13.0625 8.265625 
Q 6.59375 17.96875 6.59375 36.375 
Q 6.59375 54.828125 13.0625 64.515625 
Q 19.53125 74.21875 31.78125 74.21875 
" id="DejaVuSans-30"/>
      </defs>
      <g transform="translate(44.2375 53.307386)scale(0.1 -0.1)">
       <use xlink:href="#DejaVuSans-30"/>
      </g>
     </g>
    </g>
    <g id="ytick_2">
     <g id="line2d_7">
      <g>
       <use style="stroke:#000000;stroke-width:0.8;" x="57.6" xlink:href="#m90a4a70d0b" y="96.473191"/>
      </g>
     </g>
     <g id="text_8">
      <!-- 20 -->
      <g transform="translate(37.875 100.27241)scale(0.1 -0.1)">
       <use xlink:href="#DejaVuSans-32"/>
       <use x="63.623047" xlink:href="#DejaVuSans-30"/>
      </g>
     </g>
    </g>
    <g id="ytick_3">
     <g id="line2d_8">
      <g>
       <use style="stroke:#000000;stroke-width:0.8;" x="57.6" xlink:href="#m90a4a70d0b" y="143.438215"/>
      </g>
     </g>
     <g id="text_9">
      <!-- 40 -->
      <g transform="translate(37.875 147.237434)scale(0.1 -0.1)">
       <use xlink:href="#DejaVuSans-34"/>
       <use x="63.623047" xlink:href="#DejaVuSans-30"/>
      </g>
     </g>
    </g>
    <g id="ytick_4">
     <g id="line2d_9">
      <g>
       <use style="stroke:#000000;stroke-width:0.8;" x="57.6" xlink:href="#m90a4a70d0b" y="190.403239"/>
      </g>
     </g>
     <g id="text_10">
      <!-- 60 -->
      <defs>
       <path d="M 33.015625 40.375 
Q 26.375 40.375 22.484375 35.828125 
Q 18.609375 31.296875 18.609375 23.390625 
Q 18.609375 15.53125 22.484375 10.953125 
Q 26.375 6.390625 33.015625 6.390625 
Q 39.65625 6.390625 43.53125 10.953125 
Q 47.40625 15.53125 47.40625 23.390625 
Q 47.40625 31.296875 43.53125 35.828125 
Q 39.65625 40.375 33.015625 40.375 
M 52.59375 71.296875 
L 52.59375 62.3125 
Q 48.875 64.0625 45.09375 64.984375 
Q 41.3125 65.921875 37.59375 65.921875 
Q 27.828125 65.921875 22.671875 59.328125 
Q 17.53125 52.734375 16.796875 39.40625 
Q 19.671875 43.65625 24.015625 45.921875 
Q 28.375 48.1875 33.59375 48.1875 
Q 44.578125 48.1875 50.953125 41.515625 
Q 57.328125 34.859375 57.328125 23.390625 
Q 57.328125 12.15625 50.6875 5.359375 
Q 44.046875 -1.421875 33.015625 -1.421875 
Q 20.359375 -1.421875 13.671875 8.265625 
Q 6.984375 17.96875 6.984375 36.375 
Q 6.984375 53.65625 15.1875 63.9375 
Q 23.390625 74.21875 37.203125 74.21875 
Q 40.921875 74.21875 44.703125 73.484375 
Q 48.484375 72.75 52.59375 71.296875 
" id="DejaVuSans-36"/>
      </defs>
      <g transform="translate(37.875 194.202458)scale(0.1 -0.1)">
       <use xlink:href="#DejaVuSans-36"/>
       <use x="63.623047" xlink:href="#DejaVuSans-30"/>
      </g>
     </g>
    </g>
    <g id="ytick_5">
     <g id="line2d_10">
      <g>
       <use style="stroke:#000000;stroke-width:0.8;" x="57.6" xlink:href="#m90a4a70d0b" y="237.368263"/>
      </g>
     </g>
     <g id="text_11">
      <!-- 80 -->
      <defs>
       <path d="M 31.78125 34.625 
Q 24.75 34.625 20.71875 30.859375 
Q 16.703125 27.09375 16.703125 20.515625 
Q 16.703125 13.921875 20.71875 10.15625 
Q 24.75 6.390625 31.78125 6.390625 
Q 38.8125 6.390625 42.859375 10.171875 
Q 46.921875 13.96875 46.921875 20.515625 
Q 46.921875 27.09375 42.890625 30.859375 
Q 38.875 34.625 31.78125 34.625 
M 21.921875 38.8125 
Q 15.578125 40.375 12.03125 44.71875 
Q 8.5 49.078125 8.5 55.328125 
Q 8.5 64.0625 14.71875 69.140625 
Q 20.953125 74.21875 31.78125 74.21875 
Q 42.671875 74.21875 48.875 69.140625 
Q 55.078125 64.0625 55.078125 55.328125 
Q 55.078125 49.078125 51.53125 44.71875 
Q 48 40.375 41.703125 38.8125 
Q 48.828125 37.15625 52.796875 32.3125 
Q 56.78125 27.484375 56.78125 20.515625 
Q 56.78125 9.90625 50.3125 4.234375 
Q 43.84375 -1.421875 31.78125 -1.421875 
Q 19.734375 -1.421875 13.25 4.234375 
Q 6.78125 9.90625 6.78125 20.515625 
Q 6.78125 27.484375 10.78125 32.3125 
Q 14.796875 37.15625 21.921875 38.8125 
M 18.3125 54.390625 
Q 18.3125 48.734375 21.84375 45.5625 
Q 25.390625 42.390625 31.78125 42.390625 
Q 38.140625 42.390625 41.71875 45.5625 
Q 45.3125 48.734375 45.3125 54.390625 
Q 45.3125 60.0625 41.71875 63.234375 
Q 38.140625 66.40625 31.78125 66.40625 
Q 25.390625 66.40625 21.84375 63.234375 
Q 18.3125 60.0625 18.3125 54.390625 
" id="DejaVuSans-38"/>
      </defs>
      <g transform="translate(37.875 241.167482)scale(0.1 -0.1)">
       <use xlink:href="#DejaVuSans-38"/>
       <use x="63.623047" xlink:href="#DejaVuSans-30"/>
      </g>
     </g>
    </g>
    <g id="ytick_6">
     <g id="line2d_11">
      <g>
       <use style="stroke:#000000;stroke-width:0.8;" x="57.6" xlink:href="#m90a4a70d0b" y="284.333287"/>
      </g>
     </g>
     <g id="text_12">
      <!-- 100 -->
      <g transform="translate(31.5125 288.132506)scale(0.1 -0.1)">
       <use xlink:href="#DejaVuSans-31"/>
       <use x="63.623047" xlink:href="#DejaVuSans-30"/>
       <use x="127.246094" xlink:href="#DejaVuSans-30"/>
      </g>
     </g>
    </g>
    <g id="text_13">
     <!-- Depth (m) -->
     <defs>
      <path d="M 19.671875 64.796875 
L 19.671875 8.109375 
L 31.59375 8.109375 
Q 46.6875 8.109375 53.6875 14.9375 
Q 60.6875 21.78125 60.6875 36.53125 
Q 60.6875 51.171875 53.6875 57.984375 
Q 46.6875 64.796875 31.59375 64.796875 
z
M 9.8125 72.90625 
L 30.078125 72.90625 
Q 51.265625 72.90625 61.171875 64.09375 
Q 71.09375 55.28125 71.09375 36.53125 
Q 71.09375 17.671875 61.125 8.828125 
Q 51.171875 0 30.078125 0 
L 9.8125 0 
z
" id="DejaVuSans-44"/>
      <path d="M 56.203125 29.59375 
L 56.203125 25.203125 
L 14.890625 25.203125 
Q 15.484375 15.921875 20.484375 11.0625 
Q 25.484375 6.203125 34.421875 6.203125 
Q 39.59375 6.203125 44.453125 7.46875 
Q 49.3125 8.734375 54.109375 11.28125 
L 54.109375 2.78125 
Q 49.265625 0.734375 44.1875 -0.34375 
Q 39.109375 -1.421875 33.890625 -1.421875 
Q 20.796875 -1.421875 13.15625 6.1875 
Q 5.515625 13.8125 5.515625 26.8125 
Q 5.515625 40.234375 12.765625 48.109375 
Q 20.015625 56 32.328125 56 
Q 43.359375 56 49.78125 48.890625 
Q 56.203125 41.796875 56.203125 29.59375 
M 47.21875 32.234375 
Q 47.125 39.59375 43.09375 43.984375 
Q 39.0625 48.390625 32.421875 48.390625 
Q 24.90625 48.390625 20.390625 44.140625 
Q 15.875 39.890625 15.1875 32.171875 
z
" id="DejaVuSans-65"/>
      <path d="M 18.109375 8.203125 
L 18.109375 -20.796875 
L 9.078125 -20.796875 
L 9.078125 54.6875 
L 18.109375 54.6875 
L 18.109375 46.390625 
Q 20.953125 51.265625 25.265625 53.625 
Q 29.59375 56 35.59375 56 
Q 45.5625 56 51.78125 48.09375 
Q 58.015625 40.1875 58.015625 27.296875 
Q 58.015625 14.40625 51.78125 6.484375 
Q 45.5625 -1.421875 35.59375 -1.421875 
Q 29.59375 -1.421875 25.265625 0.953125 
Q 20.953125 3.328125 18.109375 8.203125 
M 48.6875 27.296875 
Q 48.6875 37.203125 44.609375 42.84375 
Q 40.53125 48.484375 33.40625 48.484375 
Q 26.265625 48.484375 22.1875 42.84375 
Q 18.109375 37.203125 18.109375 27.296875 
Q 18.109375 17.390625 22.1875 11.75 
Q 26.265625 6.109375 33.40625 6.109375 
Q 40.53125 6.109375 44.609375 11.75 
Q 48.6875 17.390625 48.6875 27.296875 
" id="DejaVuSans-70"/>
      <path d="M 54.890625 33.015625 
L 54.890625 0 
L 45.90625 0 
L 45.90625 32.71875 
Q 45.90625 40.484375 42.875 44.328125 
Q 39.84375 48.1875 33.796875 48.1875 
Q 26.515625 48.1875 22.3125 43.546875 
Q 18.109375 38.921875 18.109375 30.90625 
L 18.109375 0 
L 9.078125 0 
L 9.078125 75.984375 
L 18.109375 75.984375 
L 18.109375 46.1875 
Q 21.34375 51.125 25.703125 53.5625 
Q 30.078125 56 35.796875 56 
Q 45.21875 56 50.046875 50.171875 
Q 54.890625 44.34375 54.890625 33.015625 
" id="DejaVuSans-68"/>
      <path d="M 52 44.1875 
Q 55.375 50.25 60.0625 53.125 
Q 64.75 56 71.09375 56 
Q 79.640625 56 84.28125 50.015625 
Q 88.921875 44.046875 88.921875 33.015625 
L 88.921875 0 
L 79.890625 0 
L 79.890625 32.71875 
Q 79.890625 40.578125 77.09375 44.375 
Q 74.3125 48.1875 68.609375 48.1875 
Q 61.625 48.1875 57.5625 43.546875 
Q 53.515625 38.921875 53.515625 30.90625 
L 53.515625 0 
L 44.484375 0 
L 44.484375 32.71875 
Q 44.484375 40.625 41.703125 44.40625 
Q 38.921875 48.1875 33.109375 48.1875 
Q 26.21875 48.1875 22.15625 43.53125 
Q 18.109375 38.875 18.109375 30.90625 
L 18.109375 0 
L 9.078125 0 
L 9.078125 54.6875 
L 18.109375 54.6875 
L 18.109375 46.1875 
Q 21.1875 51.21875 25.484375 53.609375 
Q 29.78125 56 35.6875 56 
Q 41.65625 56 45.828125 52.96875 
Q 50 49.953125 52 44.1875 
" id="DejaVuSans-6d"/>
     </defs>
     <g transform="translate(25.432812 200.118625)rotate(-90)scale(0.1 -0.1)">
      <use xlink:href="#DejaVuSans-44"/>
      <use x="77.001953" xlink:href="#DejaVuSans-65"/>
      <use x="138.525391" xlink:href="#DejaVuSans-70"/>
      <use x="202.001953" xlink:href="#DejaVuSans-74"/>
      <use x="241.210938" xlink:href="#DejaVuSans-68"/>
      <use x="304.589844" xlink:href="#DejaVuSans-20"/>
      <use x="336.376953" xlink:href="#DejaVuSans-28"/>
      <use x="375.390625" xlink:href="#DejaVuSans-6d"/>
      <use x="472.802734" xlink:href="#DejaVuSans-29"/>
     </g>
    </g>
   </g>
   <g id="line2d_12">
    <path clip-path="url(#p61de9e0594)" d="M 383.811924 295.488 
L 382.502936 295.18474 
L 386.247709 294.823308 
L 398.487273 294.547997 
L 395.177809 294.262474 
L 387.502457 294.007103 
L 390.563808 293.742004 
L 387.699667 293.496218 
L 391.866677 293.23266 
L 391.416625 292.997086 
L 387.950839 292.745889 
L 388.12691 292.524487 
L 385.518948 292.287927 
L 392.890836 291.816905 
L 391.32094 291.58916 
L 390.917341 291.352099 
L 387.782279 290.892435 
L 387.46129 290.666482 
L 387.910229 290.441442 
L 388.75943 290.204345 
L 390.133506 289.988962 
L 388.990575 289.761558 
L 389.538536 289.320508 
L 389.209203 289.079201 
L 389.598339 288.866828 
L 390.439752 288.645676 
L 389.891513 288.412485 
L 391.896717 287.956422 
L 389.740754 287.741326 
L 390.300675 287.503584 
L 391.667519 287.260826 
L 395.176418 287.031236 
L 389.698196 286.796557 
L 387.64348 286.552187 
L 389.302663 286.314839 
L 389.168315 286.064144 
L 385.492246 285.830344 
L 387.298849 285.331194 
L 386.312519 284.817496 
L 391.078947 284.566819 
L 388.05765 284.330654 
L 387.121666 284.082969 
L 388.662911 283.59068 
L 388.312995 283.347169 
L 386.859645 283.110968 
L 386.342281 282.86271 
L 386.209046 282.626509 
L 386.582049 282.372249 
L 386.414601 281.900599 
L 386.434906 281.658343 
L 386.231576 281.168114 
L 386.403475 280.939384 
L 387.00957 280.687829 
L 387.094128 280.448224 
L 386.995384 280.208995 
L 386.495821 279.948644 
L 386.448535 279.697645 
L 386.237417 279.447845 
L 385.69947 279.209136 
L 385.523677 278.472979 
L 385.391832 278.230364 
L 385.541479 277.971822 
L 384.822175 277.729834 
L 384.30342 277.247632 
L 384.295354 277.008063 
L 384.119005 276.771754 
L 384.05948 276.266083 
L 384.407171 276.01958 
L 384.421635 275.780548 
L 384.881144 275.535551 
L 384.674754 275.287507 
L 384.730385 275.060246 
L 384.53679 274.325146 
L 385.195735 274.090969 
L 384.913688 273.841439 
L 384.902283 273.341106 
L 384.409396 272.837136 
L 385.79877 272.101122 
L 386.124487 271.853939 
L 384.376574 271.604086 
L 383.55046 271.36079 
L 382.124648 271.10069 
L 382.690133 270.847809 
L 382.8306 270.593155 
L 383.098461 270.360429 
L 383.136568 270.104539 
L 382.263725 269.863339 
L 381.815898 269.604439 
L 382.012552 268.869822 
L 382.730743 268.628372 
L 382.386112 268.141781 
L 382.658145 267.897338 
L 382.48875 267.649564 
L 382.047322 267.403867 
L 380.995069 267.165068 
L 380.414286 266.916398 
L 380.505242 266.662263 
L 380.419571 266.411174 
L 380.992287 265.912221 
L 380.969479 265.652694 
L 381.454021 265.39881 
L 380.042951 264.89029 
L 380.024037 264.650022 
L 379.682465 264.404863 
L 379.594847 264.145945 
L 379.696929 263.910765 
L 378.997096 263.405469 
L 379.196532 263.151962 
L 379.731698 262.900192 
L 379.205155 262.649694 
L 379.309184 262.420211 
L 379.799846 262.173601 
L 379.10502 261.93448 
L 379.583443 261.677318 
L 379.70277 261.415622 
L 379.060515 261.183506 
L 376.604703 260.938347 
L 376.604703 260.938347 
L 376.298457 260.393924 
L 376.551576 260.207511 
L 376.364101 259.975932 
L 376.462011 259.496453 
L 376.400817 259.236317 
L 376.598305 258.99415 
L 375.802232 258.299091 
L 375.76941 257.825076 
L 375.75884 257.345347 
L 375.690692 257.102875 
L 375.990819 256.637299 
L 375.830047 256.184676 
L 376.367439 255.947919 
L 376.181911 255.707024 
L 376.52376 255.469945 
L 377.503971 255.238367 
L 377.177142 254.989302 
L 377.718706 254.757687 
L 376.895095 254.500794 
L 376.203885 254.008039 
L 375.346339 253.770728 
L 375.226733 253.533344 
L 374.574465 253.027081 
L 374.727449 252.790629 
L 374.672931 252.555414 
L 375.195024 252.308409 
L 374.136652 251.594879 
L 374.196733 251.344597 
L 374.112731 251.097306 
L 373.03906 250.398825 
L 374.234006 250.15062 
L 374.119128 249.912341 
L 373.280775 249.429817 
L 372.823492 249.174983 
L 372.788723 248.950875 
L 372.994556 248.726481 
L 372.96229 248.48761 
L 374.591154 248.023736 
L 374.363068 247.780655 
L 375.369982 247.561636 
L 373.968369 247.325184 
L 373.550862 247.096848 
L 372.309465 246.623926 
L 372.283041 246.388065 
L 371.75761 246.151004 
L 371.843003 245.914821 
L 371.667767 245.677473 
L 371.660535 245.453061 
L 372.178733 245.222575 
L 371.099222 244.991211 
L 370.202457 244.532748 
L 370.299254 244.294791 
L 369.550466 244.075789 
L 369.892316 243.842598 
L 369.082335 243.619995 
L 369.113488 243.398897 
L 368.829494 243.166315 
L 369.093739 242.943102 
L 368.818368 242.059803 
L 368.962451 241.836017 
L 368.743823 241.599207 
L 369.512638 241.138612 
L 369.427801 240.919269 
L 369.140469 240.698135 
L 369.301241 240.479474 
L 369.038943 240.262855 
L 368.310182 240.041094 
L 368.514069 239.596748 
L 367.513831 239.148747 
L 367.195067 238.944239 
L 367.392278 238.720991 
L 366.941948 238.294399 
L 366.22181 238.087705 
L 366.001791 237.655076 
L 366.129185 237.244179 
L 368.621157 236.824789 
L 367.842051 236.619636 
L 367.447352 236.39517 
L 366.438213 236.17108 
L 366.877695 235.964386 
L 364.076138 235.288909 
L 365.118099 235.062024 
L 365.402093 234.844223 
L 364.890292 234.626403 
L 363.98852 234.376622 
L 364.259997 234.157011 
L 364.812966 233.940696 
L 363.939009 233.716535 
L 363.699241 233.499898 
L 362.772436 233.29143 
L 362.340742 232.842193 
L 362.816384 232.624087 
L 364.112576 232.401108 
L 362.763535 232.173058 
L 362.426413 231.960327 
L 361.725468 231.75125 
L 361.795284 231.54427 
L 361.491541 231.321918 
L 361.58806 231.099279 
L 361.248157 230.676539 
L 361.267628 230.463861 
L 361.071252 230.254462 
L 361.072643 228.977841 
L 361.338835 228.771147 
L 361.332716 228.56087 
L 362.239495 228.352958 
L 362.428082 228.154111 
L 363.673373 227.951054 
L 363.955698 227.550279 
L 361.312411 226.934748 
L 360.732184 226.72139 
L 360.498257 226.498715 
L 360.057663 226.263428 
L 359.206237 226.050696 
L 359.120566 225.829545 
L 359.582578 225.609575 
L 359.42709 225.379376 
L 358.175124 224.925015 
L 357.561518 224.687022 
L 356.265882 224.470367 
L 356.084526 224.007855 
L 350.027468 222.894177 
L 349.737354 222.671251 
L 350.07086 222.224719 
L 349.85696 221.772096 
L 349.849172 221.556086 
L 350.257779 221.110432 
L 350.017454 220.895032 
L 349.962102 220.666337 
L 349.60996 220.456902 
L 349.818019 220.230304 
L 349.384378 220.0182 
L 349.209142 219.796743 
L 349.477838 219.581898 
L 349.204413 219.133825 
L 349.375477 218.702934 
L 349.088424 218.275106 
L 349.088424 218.067481 
L 349.314562 217.83936 
L 350.130106 217.648915 
L 350.127881 217.423571 
L 348.76521 217.004128 
L 348.751024 216.793206 
L 349.120133 216.577752 
L 348.480659 216.166442 
L 348.727937 215.541219 
L 348.48817 215.324277 
L 348.595537 215.107013 
L 348.561324 214.900892 
L 348.172744 214.475734 
L 348.396657 214.269972 
L 348.319331 214.052708 
L 347.974699 213.660085 
L 348.246733 213.450345 
L 348.825847 213.223747 
L 348.521826 213.031833 
L 348.282893 212.605744 
L 347.55747 212.399336 
L 347.385015 212.196244 
L 346.858193 211.975378 
L 346.756111 211.782551 
L 346.888234 211.572525 
L 346.41148 211.152759 
L 345.890221 210.322956 
L 346.049325 209.472013 
L 345.795093 208.870546 
L 346.06212 208.452034 
L 345.640162 208.020856 
L 345.761436 207.81384 
L 345.592319 207.61347 
L 346.07269 207.394988 
L 345.717766 207.194278 
L 345.945017 206.983643 
L 346.004264 206.56574 
L 345.78202 206.351504 
L 346.577537 206.148698 
L 346.392844 205.951625 
L 343.653315 205.522865 
L 343.580439 205.307411 
L 344.088625 205.096489 
L 343.065578 204.671008 
L 343.026637 204.44862 
L 343.164601 204.21301 
L 342.500928 204.014719 
L 342.567963 203.80231 
L 342.411919 203.580226 
L 342.497312 202.940222 
L 342.401349 202.734747 
L 342.652243 202.510531 
L 342.503987 202.284542 
L 342.855851 202.069106 
L 342.066453 200.994878 
L 342.147952 200.781251 
L 341.796923 200.562804 
L 341.768273 200.332623 
L 341.908184 200.12618 
L 341.553817 199.89478 
L 341.724046 199.433755 
L 341.439218 199.197258 
L 341.581076 198.976966 
L 341.507087 198.731404 
L 341.677317 198.494549 
L 341.225596 198.251702 
L 341.465921 197.760551 
L 341.193887 197.075086 
L 341.238113 196.608632 
L 341.552982 196.137672 
L 341.16635 195.466647 
L 341.326844 195.237343 
L 340.473471 194.79229 
L 340.468464 194.554288 
L 339.952212 194.339138 
L 339.975021 194.113131 
L 339.748882 193.894998 
L 339.36531 193.697925 
L 339.967233 193.272435 
L 339.862647 192.821397 
L 339.631224 192.406496 
L 339.653198 192.198862 
L 338.054375 191.79754 
L 337.619065 191.564017 
L 337.768712 191.112344 
L 336.477248 190.460301 
L 334.124908 190.018275 
L 333.843974 189.782656 
L 334.113504 189.555171 
L 334.027833 189.313792 
L 334.122127 189.089335 
L 333.750514 188.871184 
L 333.674022 188.653042 
L 333.097968 188.437919 
L 333.21201 188.220646 
L 333.193652 188.003122 
L 331.953646 186.912967 
L 332.09161 186.066001 
L 332.212329 185.852087 
L 332.702434 185.652022 
L 333.061251 185.231988 
L 333.046231 185.027417 
L 330.299471 184.410632 
L 330.453011 184.180737 
L 329.743443 183.745662 
L 327.981901 183.322331 
L 327.879818 182.90021 
L 327.866467 182.703764 
L 327.426429 182.279224 
L 327.564393 182.070111 
L 327.564671 181.644057 
L 327.014763 181.422628 
L 327.014763 181.422628 
L 327.742411 180.773308 
L 326.275154 180.340669 
L 327.014207 179.925437 
L 326.500458 179.705808 
L 326.362494 179.49639 
L 326.942721 179.274056 
L 321.866152 178.844688 
L 321.168823 178.628364 
L 321.093999 178.414128 
L 320.343265 177.776901 
L 320.371914 177.561787 
L 319.877915 177.347855 
L 319.793078 177.14779 
L 319.326616 176.737134 
L 319.336907 176.53827 
L 319.744401 176.324956 
L 319.755527 176.102917 
L 318.548622 175.669034 
L 318.182294 175.228558 
L 317.644625 175.015226 
L 317.68301 174.808559 
L 317.479124 174.607572 
L 317.526966 173.981488 
L 317.305835 173.75945 
L 316.450514 173.54945 
L 316.966766 173.341574 
L 316.591816 173.136376 
L 314.826101 172.73596 
L 314.373268 172.535617 
L 313.44229 172.306645 
L 312.613395 171.893266 
L 312.164178 171.67602 
L 312.189768 171.012314 
L 312.373349 170.80261 
L 312.309373 170.369363 
L 311.794234 169.920144 
L 310.385111 169.476353 
L 310.110296 169.250695 
L 309.255532 168.803877 
L 309.185438 168.590563 
L 309.29503 168.384801 
L 309.123131 167.950649 
L 309.139542 167.522239 
L 308.885867 167.075743 
L 308.885033 166.887753 
L 308.645543 166.468373 
L 308.473644 165.845299 
L 308.627741 165.644983 
L 308.500625 165.437421 
L 308.53901 165.243089 
L 307.312078 164.827641 
L 307.264235 164.618546 
L 307.052283 164.425119 
L 307.131556 164.217861 
L 307.011116 164.031062 
L 306.104616 163.607785 
L 304.918015 163.389948 
L 304.809814 163.200148 
L 303.814583 162.965748 
L 303.636565 162.75548 
L 298.91325 161.469354 
L 299.172766 161.246715 
L 297.680476 161.046095 
L 296.876336 160.815913 
L 290.855437 160.148893 
L 289.010171 159.917233 
L 284.233172 159.693421 
L 280.200511 159.244506 
L 277.405352 158.583246 
L 277.087701 158.362739 
L 276.571728 158.151548 
L 275.451884 157.934329 
L 266.92149 157.280297 
L 266.096488 157.043505 
L 264.85982 156.844971 
L 255.73251 156.402435 
L 252.072573 156.185511 
L 249.602297 155.751126 
L 248.971446 155.532106 
L 244.831696 155.106429 
L 244.255085 154.883207 
L 243.302967 154.203888 
L 240.563717 153.115453 
L 229.626466 151.175412 
L 226.739516 150.769638 
L 224.99967 150.359332 
L 225.320658 150.151187 
L 224.320698 149.751138 
L 223.802778 149.339631 
L 223.81891 149.119742 
L 223.949642 148.916399 
L 223.7783 148.715769 
L 223.764949 148.520255 
L 223.584149 148.322653 
L 223.73018 148.12687 
L 223.667039 147.909051 
L 223.888171 147.707221 
L 223.616693 147.496971 
L 223.418648 146.06399 
L 223.522678 145.864292 
L 223.381654 145.65672 
L 223.481789 145.45791 
L 223.095991 145.049762 
L 222.962756 144.839494 
L 222.007022 144.430138 
L 222.016758 144.009933 
L 222.170854 143.596339 
L 221.960571 143.3915 
L 221.973088 143.178535 
L 221.796739 142.770684 
L 221.597581 141.781171 
L 221.485485 141.577254 
L 221.184246 141.385663 
L 221.183133 140.979021 
L 221.383682 140.787457 
L 221.36588 140.594979 
L 221.942769 139.997722 
L 221.683252 139.787427 
L 221.964465 139.383194 
L 221.659331 138.959693 
L 221.414278 138.763588 
L 221.571991 138.559071 
L 221.56309 138.373831 
L 221.440703 138.156361 
L 221.521924 137.950348 
L 221.438199 137.749727 
L 221.666841 137.551526 
L 221.187862 136.954233 
L 220.605688 136.553933 
L 220.688021 136.347911 
L 220.517791 135.933134 
L 220.459379 135.099085 
L 220.403192 134.28916 
L 220.325866 134.079196 
L 220.393179 133.883736 
L 220.197916 133.697896 
L 220.155636 132.512976 
L 220.092217 132.327745 
L 220.267732 132.138618 
L 220.174829 131.947358 
L 219.878596 131.757899 
L 220.4833 131.356112 
L 220.234354 130.935684 
L 218.803813 130.522708 
L 218.556813 130.309439 
L 218.490891 130.099216 
L 217.231693 129.66097 
L 215.344147 129.24262 
L 214.444322 128.842033 
L 213.281086 128.417054 
L 213.107241 128.210136 
L 212.040246 127.783338 
L 211.774054 127.58064 
L 211.218582 127.368589 
L 210.730146 126.954144 
L 210.283989 126.742139 
L 210.137124 126.524373 
L 209.060672 125.870457 
L 207.38341 125.260866 
L 206.600687 124.625668 
L 204.912021 124.176287 
L 204.325118 123.722401 
L 203.609431 123.509741 
L 201.504647 122.060148 
L 200.845425 121.855335 
L 200.708017 121.643307 
L 199.21378 121.048169 
L 197.158786 120.648809 
L 194.560281 119.854896 
L 193.219306 119.453408 
L 181.159985 117.628265 
L 177.454154 116.402771 
L 176.943743 116.210007 
L 176.763083 116.004603 
L 173.224838 115.176976 
L 172.795787 114.972177 
L 172.619856 114.552317 
L 171.611551 113.934018 
L 171.45217 113.721068 
L 170.067246 113.325622 
L 169.249755 113.116613 
L 165.969219 112.917838 
L 156.1233 112.495282 
L 148.942365 112.091416 
L 145.85139 111.685119 
L 144.6271 111.496901 
L 144.392617 111.266477 
L 143.992912 111.066807 
L 142.496032 110.648461 
L 142.470859 110.443066 
L 142.783781 109.784076 
L 142.782807 109.38533 
L 139.111884 108.348389 
L 132.42912 107.418997 
L 132.367649 107.23258 
L 131.011375 106.897408 
L 130.776475 106.715191 
L 130.805264 106.562836 
L 130.805264 106.562836 
L 125.204237 105.935534 
L 124.098579 105.650369 
L 121.482273 105.324527 
L 121.053222 105.173641 
L 112.502522 104.566866 
L 105.81809 104.247343 
L 101.481964 103.733874 
L 99.826815 103.383644 
L 97.260158 102.852102 
L 97.009264 102.666293 
L 96.263536 102.312735 
L 96.167574 102.132346 
L 93.582698 101.786026 
L 93.359481 101.626415 
L 93.503981 101.445116 
L 93.479365 101.279194 
L 93.695072 101.113272 
L 93.456139 100.436577 
L 93.299956 100.270355 
L 93.318453 99.942089 
L 93.237372 99.77133 
L 92.725431 99.429838 
L 92.424331 99.063385 
L 92.417099 98.898605 
L 92.265088 98.545643 
L 91.936172 97.833398 
L 91.771227 97.652705 
L 91.693206 96.85919 
L 91.141072 96.45798 
L 90.488525 95.822205 
L 89.789666 94.81298 
L 89.684802 94.618711 
L 89.276613 94.23986 
L 89.268268 94.052538 
L 88.76495 93.499882 
L 84.987355 92.815371 
L 80.575711 91.981161 
L 80.082267 91.804982 
L 76.222895 91.099048 
L 76.135555 90.924092 
L 74.933239 90.372641 
L 74.850072 89.826619 
L 74.882476 89.637487 
L 74.555647 88.893594 
L 74.541739 88.508697 
L 74.380967 87.891885 
L 74.414206 87.496749 
L 74.348562 86.905219 
L 74.401689 86.516414 
L 74.433538 85.114165 
L 74.373178 84.185337 
L 74.445776 83.810372 
L 74.385278 83.409203 
L 74.37443 78.384312 
L 74.331038 77.438607 
L 74.486109 77.241628 
L 74.311428 77.057006 
L 74.302806 76.471209 
L 74.290567 75.524304 
L 74.485969 71.201829 
L 74.513924 70.711513 
L 74.458293 70.245014 
L 74.289037 69.066871 
L 74.351343 67.700184 
L 74.432842 67.542978 
L 74.292514 66.959615 
L 74.206565 66.672312 
L 74.427001 66.418737 
L 74.344807 65.92094 
L 74.327005 65.677653 
L 74.371788 64.946717 
L 74.204896 64.795542 
L 74.261361 64.512142 
L 74.21783 64.198924 
L 74.262752 62.885538 
L 74.019368 62.486874 
L 73.959843 62.336028 
L 74.279441 61.912921 
L 74.201002 61.715982 
L 74.29766 61.399771 
L 74.364138 61.171498 
L 74.404332 60.935395 
L 74.230347 58.946589 
L 74.332846 58.664386 
L 74.37443 58.377069 
L 74.249679 58.255692 
L 74.308925 57.984378 
L 74.028686 57.767681 
L 74.113384 57.746935 
L 74.102257 57.71955 
L 74.405722 57.581345 
L 74.171518 57.456727 
L 74.04315 57.42634 
L 74.04315 57.42634 
L 74.04315 57.42634 
L 74.393762 57.337545 
L 74.322972 57.295101 
L 73.945518 56.925095 
L 73.832727 56.768514 
L 74.375126 56.464057 
L 74.390563 56.273428 
L 74.246063 56.152703 
L 74.349118 56.115719 
L 74.398212 56.097074 
L 74.398212 56.097074 
L 74.398212 56.097074 
L 74.136331 56.010483 
L 74.245367 55.862671 
L 74.191127 55.838307 
L 74.241751 55.800694 
L 74.346893 55.748639 
L 74.264838 55.763745 
L 74.264838 55.763745 
L 73.960539 55.817728 
L 74.160809 55.897063 
L 74.397378 55.918581 
L 74.395431 55.898434 
L 74.289315 55.22793 
L 74.07319 55.25035 
L 74.164146 55.129923 
L 74.054137 54.961625 
L 74.399881 54.770423 
L 74.320747 54.490694 
L 74.30364 54.430177 
L 74.446611 54.20705 
L 74.323945 53.770971 
L 74.250513 53.568 
L 74.250513 53.568 
" style="fill:none;stroke:#1f77b4;stroke-linecap:square;stroke-width:1.5;"/>
   </g>
   <g id="patch_3">
    <path d="M 57.6 307.584 
L 57.6 41.472 
" style="fill:none;stroke:#000000;stroke-linecap:square;stroke-linejoin:miter;stroke-width:0.8;"/>
   </g>
   <g id="patch_4">
    <path d="M 414.72 307.584 
L 414.72 41.472 
" style="fill:none;stroke:#000000;stroke-linecap:square;stroke-linejoin:miter;stroke-width:0.8;"/>
   </g>
   <g id="patch_5">
    <path d="M 57.6 307.584 
L 414.72 307.584 
" style="fill:none;stroke:#000000;stroke-linecap:square;stroke-linejoin:miter;stroke-width:0.8;"/>
   </g>
   <g id="patch_6">
    <path d="M 57.6 41.472 
L 414.72 41.472 
" style="fill:none;stroke:#000000;stroke-linecap:square;stroke-linejoin:miter;stroke-width:0.8;"/>
   </g>
   <g id="text_14">
    <!-- Depth Plot Example -->
    <defs>
     <path d="M 30.609375 48.390625 
Q 23.390625 48.390625 19.1875 42.75 
Q 14.984375 37.109375 14.984375 27.296875 
Q 14.984375 17.484375 19.15625 11.84375 
Q 23.34375 6.203125 30.609375 6.203125 
Q 37.796875 6.203125 41.984375 11.859375 
Q 46.1875 17.53125 46.1875 27.296875 
Q 46.1875 37.015625 41.984375 42.703125 
Q 37.796875 48.390625 30.609375 48.390625 
M 30.609375 56 
Q 42.328125 56 49.015625 48.375 
Q 55.71875 40.765625 55.71875 27.296875 
Q 55.71875 13.875 49.015625 6.21875 
Q 42.328125 -1.421875 30.609375 -1.421875 
Q 18.84375 -1.421875 12.171875 6.21875 
Q 5.515625 13.875 5.515625 27.296875 
Q 5.515625 40.765625 12.171875 48.375 
Q 18.84375 56 30.609375 56 
" id="DejaVuSans-6f"/>
     <path d="M 9.8125 72.90625 
L 55.90625 72.90625 
L 55.90625 64.59375 
L 19.671875 64.59375 
L 19.671875 43.015625 
L 54.390625 43.015625 
L 54.390625 34.71875 
L 19.671875 34.71875 
L 19.671875 8.296875 
L 56.78125 8.296875 
L 56.78125 0 
L 9.8125 0 
z
" id="DejaVuSans-45"/>
     <path d="M 54.890625 54.6875 
L 35.109375 28.078125 
L 55.90625 0 
L 45.3125 0 
L 29.390625 21.484375 
L 13.484375 0 
L 2.875 0 
L 24.125 28.609375 
L 4.6875 54.6875 
L 15.28125 54.6875 
L 29.78125 35.203125 
L 44.28125 54.6875 
z
" id="DejaVuSans-78"/>
    </defs>
    <g transform="translate(176.730937 35.472)scale(0.12 -0.12)">
     <use xlink:href="#DejaVuSans-44"/>
     <use x="77.001953" xlink:href="#DejaVuSans-65"/>
     <use x="138.525391" xlink:href="#DejaVuSans-70"/>
     <use x="202.001953" xlink:href="#DejaVuSans-74"/>
     <use x="241.210938" xlink:href="#DejaVuSans-68"/>
     <use x="304.589844" xlink:href="#DejaVuSans-20"/>
     <use x="336.376953" xlink:href="#DejaVuSans-50"/>
     <use x="396.679688" xlink:href="#DejaVuSans-6c"/>
     <use x="424.462891" xlink:href="#DejaVuSans-6f"/>
     <use x="485.644531" xlink:href="#DejaVuSans-74"/>
     <use x="524.853516" xlink:href="#DejaVuSans-20"/>
     <use x="556.640625" xlink:href="#DejaVuSans-45"/>
     <use x="619.824219" xlink:href="#DejaVuSans-78"/>
     <use x="679.003906" xlink:href="#DejaVuSans-61"/>
     <use x="740.283203" xlink:href="#DejaVuSans-6d"/>
     <use x="837.695312" xlink:href="#DejaVuSans-70"/>
     <use x="901.171875" xlink:href="#DejaVuSans-6c"/>
     <use x="928.955078" xlink:href="#DejaVuSans-65"/>
    </g>
   </g>
  </g>
 </g>
 <defs>
  <clipPath id="p61de9e0594">
   <rect height="266.112" width="357.12" x="57.6" y="41.472"/>
  </clipPath>
 </defs>
</svg>
